/* XPM */
static char * leftframe_xpm[] = {
"33 238 47 1",
" 	c None",
".	c #FFFFFF",
"+	c #FFFAFF",
"@	c #000000",
"#	c #C5BEC5",
"$	c #000400",
"%	c #101010",
"&	c #C5C6C5",
"*	c #EEEAEE",
"=	c #F6F6F6",
"-	c #080C08",
";	c #C5C2C5",
">	c #FFF6FF",
",	c #BDBEBD",
"'	c #080408",
")	c #080808",
"!	c #CDCACD",
"~	c #100C10",
"{	c #F6F2F6",
"]	c #D5D2D5",
"^	c #201C20",
"/	c #BDBABD",
"(	c #DEDADE",
"_	c #CDC6CD",
":	c #101410",
"<	c #D5CED5",
"[	c #292829",
"}	c #181818",
"|	c #A49DA4",
"1	c #B4B6B4",
"2	c #CDCECD",
"3	c #E6DEE6",
"4	c #EEEEEE",
"5	c #F6EEF6",
"6	c #ACAEAC",
"7	c #181C18",
"8	c #B4AEB4",
"9	c #202420",
"0	c #B4B2B4",
"a	c #E6E6E6",
"b	c #D5D6D5",
"c	c #DEDEDE",
"d	c #EEE6EE",
"e	c #202020",
"f	c #ACA5AC",
"g	c #181418",
"h	c #292429",
"...+.@.@#$@.%..&@.@....+.........",
".*..=-.;.%@.@>,@;%@.+>...........",
".+...')!%@~{#%]!^/@...*..........",
".....@+.;).@(_@&@.:.=............",
".+.+.%.@_@>/'&<)[*~*.............",
"..+.+'=_+@+}|}1/@.)..+...........",
"..{..@@]'%@#.@.2@.%3.+>..........",
"+=...@++&@..$@.!@+$.=..>.........",
"...+.@.@]@.$<{.&<@'...+.....+....",
".*..=-.;.%@;.)@$/*@..@+.......=..",
".+...')!@%+>!@.>@#/-.)^4^!.{5..+.",
".....@+.&@@]!@@@!.@.+$+...{...{..",
".+.+.%.@!@.-]1.=+@@.....+......+.",
"..+.+'=_.@.6@@2]@(-{...+.+..=....",
"..{..@@]'7'&3).1:5@.+............",
"+=...@++,@{%/@.!@.$....+..++..5..",
"...+.@.@;).!'].@'+)>..+..........",
".*..=-.;.@.@8>$,@.@.=............",
".+...')!@@@<.9_$7{%..............",
".....@+.;'@.@0a:='$+*+...........",
".+.+.%.@<@@=@.(,%1~....{.........",
"..+.+'=_{}@.)@!;@+}@{............",
"..{..@@]~@}./.'2%=#.}+...........",
"+=...@++,:5@]_@@1./b,@...........",
".>...~+@!$.!@@)..#));_@.....{.+..",
".+4.{@.@.@4]!...b-1.)#c@@..>..+..",
"...d.e5:>$.0(+{.f%]{}6<@g....+...",
"+....@+@=%.f@~)/(#@%0+}.=.+.=....",
"..+..}{2.@+}]{~@;!#..${..+....=..",
"...+=@}]$h@,.;$.@<&&@.+.5...+....",
".{d..%{{&@~=--0.$+^@.4.+....+{...",
".+.{.@+-&'%+@.+_$=).+.+..+.......",
".....@.&.@$+'.!&_@$..............",
"...+.@.@#$@.%..&@.@....+.........",
".*..=-.;.%@.@>,@;%@.+>...........",
".+...')!%@~{#%]!^/@...*..........",
".....@+.;).@(_@&@.:.=............",
".+.+.%.@_@>/'&<)[*~*.............",
"..+.+'=_+@+}|}1/@.)..+...........",
"..{..@@]'%@#.@.2@.%3.+>..........",
"+=...@++&@..$@.!@+$.=..>.........",
"...+.@.@]@.$<{.&<@'...+.....+....",
".*..=-.;.%@;.)@$/*@..@+.......=..",
".+...')!@%+>!@.>@#/-.)^4^!.{5..+.",
".....@+.&@@]!@@@!.@.+$+...{...{..",
".+.+.%.@!@.-]1.=+@@.....+......+.",
"..+.+'=_.@.6@@2]@(-{...+.+..=....",
"..{..@@]'7'&3).1:5@.+............",
"+=...@++,@{%/@.!@.$....+..++..5..",
"...+.@.@;).!'].@'+)>..+..........",
".*..=-.;.@.@8>$,@.@.=............",
".+...')!@@@<.9_$7{%..............",
".....@+.;'@.@0a:='$+*+...........",
".+.+.%.@<@@=@.(,%1~....{.........",
"..+.+'=_{}@.)@!;@+}@{............",
"..{..@@]~@}./.'2%=#.}+...........",
"+=...@++,:5@]_@@1./b,@...........",
".>...~+@!$.!@@)..#));_@.....{.+..",
".+4.{@.@.@4]!...b-1.)#c@@..>..+..",
"...d.e5:>$.0(+{.f%]{}6<@g....+...",
"+....@+@=%.f@~)/(#@%0+}.=.+.=....",
"..+..}{2.@+}]{~@;!#..${..+....=..",
"...+=@}]$h@,.;$.@<&&@.+.5...+....",
".{d..%{{&@~=--0.$+^@.4.+....+{...",
".+.{.@+-&'%+@.+_$=).+.+..+.......",
".....@.&.@$+'.!&_@$..............",
"...+.@.@#$@.%..&@.@....+.........",
".*..=-.;.%@.@>,@;%@.+>...........",
".+...')!%@~{#%]!^/@...*..........",
".....@+.;).@(_@&@.:.=............",
".+.+.%.@_@>/'&<)[*~*.............",
"..+.+'=_+@+}|}1/@.)..+...........",
"..{..@@]'%@#.@.2@.%3.+>..........",
"+=...@++&@..$@.!@+$.=..>.........",
"...+.@.@]@.$<{.&<@'...+.....+....",
".*..=-.;.%@;.)@$/*@..@+.......=..",
".+...')!@%+>!@.>@#/-.)^4^!.{5..+.",
".....@+.&@@]!@@@!.@.+$+...{...{..",
".+.+.%.@!@.-]1.=+@@.....+......+.",
"..+.+'=_.@.6@@2]@(-{...+.+..=....",
"..{..@@]'7'&3).1:5@.+............",
"+=...@++,@{%/@.!@.$....+..++..5..",
"...+.@.@;).!'].@'+)>..+..........",
".*..=-.;.@.@8>$,@.@.=............",
".+...')!@@@<.9_$7{%..............",
".....@+.;'@.@0a:='$+*+...........",
".+.+.%.@<@@=@.(,%1~....{.........",
"..+.+'=_{}@.)@!;@+}@{............",
"..{..@@]~@}./.'2%=#.}+...........",
"+=...@++,:5@]_@@1./b,@...........",
".>...~+@!$.!@@)..#));_@.....{.+..",
".+4.{@.@.@4]!...b-1.)#c@@..>..+..",
"...d.e5:>$.0(+{.f%]{}6<@g....+...",
"+....@+@=%.f@~)/(#@%0+}.=.+.=....",
"..+..}{2.@+}]{~@;!#..${..+....=..",
"...+=@}]$h@,.;$.@<&&@.+.5...+....",
".{d..%{{&@~=--0.$+^@.4.+....+{...",
".+.{.@+-&'%+@.+_$=).+.+..+.......",
".....@.&.@$+'.!&_@$..............",
"...+.@.@#$@.%..&@.@....+.........",
".*..=-.;.%@.@>,@;%@.+>...........",
".+...')!%@~{#%]!^/@...*..........",
".....@+.;).@(_@&@.:.=............",
".+.+.%.@_@>/'&<)[*~*.............",
"..+.+'=_+@+}|}1/@.)..+...........",
"..{..@@]'%@#.@.2@.%3.+>..........",
"+=...@++&@..$@.!@+$.=..>.........",
"...+.@.@]@.$<{.&<@'...+.....+....",
".*..=-.;.%@;.)@$/*@..@+.......=..",
".+...')!@%+>!@.>@#/-.)^4^!.{5..+.",
".....@+.&@@]!@@@!.@.+$+...{...{..",
".+.+.%.@!@.-]1.=+@@.....+......+.",
"..+.+'=_.@.6@@2]@(-{...+.+..=....",
"..{..@@]'7'&3).1:5@.+............",
"+=...@++,@{%/@.!@.$....+..++..5..",
"...+.@.@;).!'].@'+)>..+..........",
".*..=-.;.@.@8>$,@.@.=............",
".+...')!@@@<.9_$7{%..............",
".....@+.;'@.@0a:='$+*+...........",
".+.+.%.@<@@=@.(,%1~....{.........",
"..+.+'=_{}@.)@!;@+}@{............",
"..{..@@]~@}./.'2%=#.}+...........",
"+=...@++,:5@]_@@1./b,@...........",
".>...~+@!$.!@@)..#));_@.....{.+..",
".+4.{@.@.@4]!...b-1.)#c@@..>..+..",
"...d.e5:>$.0(+{.f%]{}6<@g....+...",
"+....@+@=%.f@~)/(#@%0+}.=.+.=....",
"..+..}{2.@+}]{~@;!#..${..+....=..",
"...+=@}]$h@,.;$.@<&&@.+.5...+....",
".{d..%{{&@~=--0.$+^@.4.+....+{...",
".+.{.@+-&'%+@.+_$=).+.+..+.......",
".....@.&.@$+'.!&_@$..............",
"...+.@.@#$@.%..&@.@....+.........",
".*..=-.;.%@.@>,@;%@.+>...........",
".+...')!%@~{#%]!^/@...*..........",
".....@+.;).@(_@&@.:.=............",
".+.+.%.@_@>/'&<)[*~*.............",
"..+.+'=_+@+}|}1/@.)..+...........",
"..{..@@]'%@#.@.2@.%3.+>..........",
"+=...@++&@..$@.!@+$.=..>.........",
"...+.@.@]@.$<{.&<@'...+.....+....",
".*..=-.;.%@;.)@$/*@..@+.......=..",
".+...')!@%+>!@.>@#/-.)^4^!.{5..+.",
".....@+.&@@]!@@@!.@.+$+...{...{..",
".+.+.%.@!@.-]1.=+@@.....+......+.",
"..+.+'=_.@.6@@2]@(-{...+.+..=....",
"..{..@@]'7'&3).1:5@.+............",
"+=...@++,@{%/@.!@.$....+..++..5..",
"...+.@.@;).!'].@'+)>..+..........",
".*..=-.;.@.@8>$,@.@.=............",
".+...')!@@@<.9_$7{%..............",
".....@+.;'@.@0a:='$+*+...........",
".+.+.%.@<@@=@.(,%1~....{.........",
"..+.+'=_{}@.)@!;@+}@{............",
"..{..@@]~@}./.'2%=#.}+...........",
"+=...@++,:5@]_@@1./b,@...........",
".>...~+@!$.!@@)..#));_@.....{.+..",
".+4.{@.@.@4]!...b-1.)#c@@..>..+..",
"...d.e5:>$.0(+{.f%]{}6<@g....+...",
"+....@+@=%.f@~)/(#@%0+}.=.+.=....",
"..+..}{2.@+}]{~@;!#..${..+....=..",
"...+=@}]$h@,.;$.@<&&@.+.5...+....",
".{d..%{{&@~=--0.$+^@.4.+....+{...",
".+.{.@+-&'%+@.+_$=).+.+..+.......",
".....@.&.@$+'.!&_@$..............",
"...+.@.@#$@.%..&@.@....+.........",
".*..=-.;.%@.@>,@;%@.+>...........",
".+...')!%@~{#%]!^/@...*..........",
".....@+.;).@(_@&@.:.=............",
".+.+.%.@_@>/'&<)[*~*.............",
"..+.+'=_+@+}|}1/@.)..+...........",
"..{..@@]'%@#.@.2@.%3.+>..........",
"+=...@++&@..$@.!@+$.=..>.........",
"...+.@.@]@.$<{.&<@'...+.....+....",
".*..=-.;.%@;.)@$/*@..@+.......=..",
".+...')!@%+>!@.>@#/-.)^4^!.{5..+.",
".....@+.&@@]!@@@!.@.+$+...{...{..",
".+.+.%.@!@.-]1.=+@@.....+......+.",
"..+.+'=_.@.6@@2]@(-{...+.+..=....",
"..{..@@]'7'&3).1:5@.+............",
"+=...@++,@{%/@.!@.$....+..++..5..",
"...+.@.@;).!'].@'+)>..+..........",
".*..=-.;.@.@8>$,@.@.=............",
".+...')!@@@<.9_$7{%..............",
".....@+.;'@.@0a:='$+*+...........",
".+.+.%.@<@@=@.(,%1~....{.........",
"..+.+'=_{}@.)@!;@+}@{............",
"..{..@@]~@}./.'2%=#.}+...........",
"+=...@++,:5@]_@@1./b,@...........",
".>...~+@!$.!@@)..#));_@.....{.+..",
".+4.{@.@.@4]!...b-1.)#c@@..>..+..",
"...d.e5:>$.0(+{.f%]{}6<@g....+...",
"+....@+@=%.f@~)/(#@%0+}.=.+.=....",
"..+..}{2.@+}]{~@;!#..${..+....=..",
"...+=@}]$h@,.;$.@<&&@.+.5...+....",
".{d..%{{&@~=--0.$+^@.4.+....+{...",
".+.{.@+-&'%+@.+_$=).+.+..+.......",
".....@.&.@$+'.!&_@$..............",
"...+.@.@#$@.%..&@.@....+.........",
".*..=-.;.%@.@>,@;%@.+>...........",
".+...')!%@~{#%]!^/@...*..........",
".....@+.;).@(_@&@.:.=............",
".+.+.%.@_@>/'&<)[*~*.............",
"..+.+'=_+@+}|}1/@.)..+...........",
"..{..@@]'%@#.@.2@.%3.+>..........",
"+=...@++&@..$@.!@+$.=..>.........",
"...+.@.@]@.$<{.&<@'...+.....+....",
".*..=-.;.%@;.)@$/*@..@+.......=..",
".+...')!@%+>!@.>@#/-.)^4^!.{5..+.",
".....@+.&@@]!@@@!.@.+$+...{...{..",
".+.+.%.@!@.-]1.=+@@.....+......+.",
"..+.+'=_.@.6@@2]@(-{...+.+..=....",
"..{..@@]'7'&3).1:5@.+............",
"+=...@++,@{%/@.!@.$....+..++..5..",
"...+.@.@;).!'].@'+)>..+..........",
".*..=-.;.@.@8>$,@.@.=............",
".+...')!@@@<.9_$7{%..............",
".....@+.;'@.@0a:='$+*+...........",
".+.+.%.@<@@=@.(,%1~....{.........",
"..+.+'=_{}@.)@!;@+}@{............",
"..{..@@]~@}./.'2%=#.}+...........",
"+=...@++,:5@]_@@1./b,@...........",
".>...~+@!$.!@@)..#));_@.....{.+..",
".+4.{@.@.@4]!...b-1.)#c@@..>..+..",
"...d.e5:>$.0(+{.f%]{}6<@g....+...",
"+....@+@=%.f@~)/(#@%0+}.=.+.=....",
"..+..}{2.@+}]{~@;!#..${..+....=..",
"...+=@}]$h@,.;$.@<&&@.+.5...+....",
".{d..%{{&@~=--0.$+^@.4.+....+{...",
".+.{.@+-&'%+@.+_$=).+.+..+.......",
".....@.&.@$+'.!&_@$..............",
"...+.@.@#$@.%..&@.@....+.........",
".*..=-.;.%@.@>,@;%@.+>...........",
".+...')!%@~{#%]!^/@...*..........",
".....@+.;).@(_@&@.:.=............",
".+.+.%.@_@>/'&<)[*~*.............",
"..+.+'=_+@+}|}1/@.)..+...........",
"..{..@@]'%@#.@.2@.%3.+>.........."};
