/* XPM */
static char * topframe_xpm[] = {
"633 33 57 1",
" 	c None",
".	c #FFFFFF",
"+	c #FFFAFF",
"@	c #F6F2F6",
"#	c #EEEAEE",
"$	c #F6F6F6",
"%	c #EEE6EE",
"&	c #FFF6FF",
"*	c #000000",
"=	c #000400",
"-	c #080808",
";	c #080408",
">	c #101410",
",	c #101010",
"'	c #C5C2C5",
")	c #BDB6BD",
"!	c #CDCECD",
"~	c #C5C6C5",
"{	c #CDCACD",
"]	c #BDBABD",
"^	c #C5BEC5",
"/	c #080C08",
"(	c #CDC6CD",
"_	c #DED6DE",
":	c #B4AEB4",
"<	c #D5D2D5",
"[	c #BDBEBD",
"}	c #100C10",
"|	c #181818",
"1	c #181418",
"2	c #B4B2B4",
"3	c #EEEEEE",
"4	c #D5CED5",
"5	c #202420",
"6	c #181C18",
"7	c #D5D6D5",
"8	c #E6E2E6",
"9	c #E6DEE6",
"0	c #202020",
"a	c #B4B6B4",
"b	c #C5BEBD",
"c	c #100C08",
"d	c #D5CECD",
"e	c #181410",
"f	c #F6EEF6",
"g	c #F6F2EE",
"h	c #DEDADE",
"i	c #C5C2BD",
"j	c #080800",
"k	c #B4B2AC",
"l	c #ACAEAC",
"m	c #E6DEDE",
"n	c #101008",
"o	c #FFF6F6",
"p	c #CDC6C5",
"q	c #FFFAF6",
"r	c #201C20",
" ....+........................... ....+........................... ....+........................... ....+........................... ....+........................... ....+........................... ....+........................... ....+........................... ....+........................... ....+........................... ....+........................... ....+........................... ....+........................... ....+........................... ....+........................... ....+........................... ....+........................... ....+........................... ....+........................... ....+",
".@.#.$....+..+@...+..+@...+..+@...@.#.$....+..+@...+..+@...+..+@...@.#.$....+..+@...+..+@...+..+@...@.#.$....+..+@...+..+@...+..+@...@.#.$....+..+@...+..+@...+..+@...@.#.$....+..+@...+..+@...+..+@...@.#.$....+..+@...+..+@...+..+@...@.#.$....+..+@...+..+@...+..+@...@.#.$....+..+@...+..+@...+..+@...@.#.$....+..+@...+..+@...+..+@...@.#.$....+..+@...+..+@...+..+@...@.#.$....+..+@...+..+@...+..+@...@.#.$....+..+@...+..+@...+..+@...@.#.$....+..+@...+..+@...+..+@...@.#.$....+..+@...+..+@...+..+@...@.#.$....+..+@...+..+@...+..+@...@.#.$....+..+@...+..+@...+..+@...@.#.$....+..+@...+..+@...+..+@...@.#.$....+..+@...+..+@...+..+@...@.#. ",
"+...%.&.&.+...+.&.+...+.&.+...+..+...%.&.&.+...+.&.+...+.&.+...+..+...%.&.&.+...+.&.+...+.&.+...+..+...%.&.&.+...+.&.+...+.&.+...+..+...%.&.&.+...+.&.+...+.&.+...+..+...%.&.&.+...+.&.+...+.&.+...+..+...%.&.&.+...+.&.+...+.&.+...+..+...%.&.&.+...+.&.+...+.&.+...+..+...%.&.&.+...+.&.+...+.&.+...+..+...%.&.&.+...+.&.+...+.&.+...+..+...%.&.&.+...+.&.+...+.&.+...+..+...%.&.&.+...+.&.+...+.&.+...+..+...%.&.&.+...+.&.+...+.&.+...+..+...%.&.&.+...+.&.+...+.&.+...+..+...%.&.&.+...+.&.+...+.&.+...+..+...%.&.&.+...+.&.+...+.&.+...+..+...%.&.&.+...+.&.+...+.&.+...+..+...%.&.&.+...+.&.+...+.&.+...+..+...%.&.&.+...+.&.+...+.&.+...+..+...%.",
".#&....&....$..@....$..@....$..@..#&....&....$..@....$..@....$..@..#&....&....$..@....$..@....$..@..#&....&....$..@....$..@....$..@..#&....&....$..@....$..@....$..@..#&....&....$..@....$..@....$..@..#&....&....$..@....$..@....$..@..#&....&....$..@....$..@....$..@..#&....&....$..@....$..@....$..@..#&....&....$..@....$..@....$..@..#&....&....$..@....$..@....$..@..#&....&....$..@....$..@....$..@..#&....&....$..@....$..@....$..@..#&....&....$..@....$..@....$..@..#&....&....$..@....$..@....$..@..#&....&....$..@....$..@....$..@..#&....&....$..@....$..@....$..@..#&....&....$..@....$..@....$..@..#&....&....$..@....$..@....$..@..#&...",
"...&................................&................................&................................&................................&................................&................................&................................&................................&................................&................................&................................&................................&................................&................................&................................&................................&................................&................................&................................&..",
"****=*=-=***-**;=***-**;=***-**;*****=*=-=***-**;=***-**;=***-**;*****=*=-=***-**;=***-**;=***-**;*****=*=-=***-**;=***-**;=***-**;*****=*=-=***-**;=***-**;=***-**;*****=*=-=***-**;=***-**;=***-**;*****=*=-=***-**;=***-**;=***-**;*****=*=-=***-**;=***-**;=***-**;*****=*=-=***-**;=***-**;=***-**;*****=*=-=***-**;=***-**;=***-**;*****=*=-=***-**;=***-**;=***-**;*****=*=-=***-**;=***-**;=***-**;*****=*=-=***-**;=***-**;=***-**;*****=*=-=***-**;=***-**;=***-**;*****=*=-=***-**;=***-**;=***-**;*****=*=-=***-**;=***-**;=***-**;*****=*=-=***-**;=***-**;=***-**;*****=*=-=***-**;=***-**;=***-**;*****=*=-=***-**;=***-**;=***-**;*****=*",
"...>+$....*...,@..*...,@..*...,@....>+$....*...,@..*...,@..*...,@....>+$....*...,@..*...,@..*...,@....>+$....*...,@..*...,@..*...,@....>+$....*...,@..*...,@..*...,@....>+$....*...,@..*...,@..*...,@....>+$....*...,@..*...,@..*...,@....>+$....*...,@..*...,@..*...,@....>+$....*...,@..*...,@..*...,@....>+$....*...,@..*...,@..*...,@....>+$....*...,@..*...,@..*...,@....>+$....*...,@..*...,@..*...,@....>+$....*...,@..*...,@..*...,@....>+$....*...,@..*...,@..*...,@....>+$....*...,@..*...,@..*...,@....>+$....*...,@..*...,@..*...,@....>+$....*...,@..*...,@..*...,@....>+$....*...,@..*...,@..*...,@....>+$....*...,@..*...,@..*...,@....>+ ",
"'*$)!;*;*.~{*+]{*.~{*+]{*.~{*+]{*'*$)!;*;*.~{*+]{*.~{*+]{*.~{*+]{*'*$)!;*;*.~{*+]{*.~{*+]{*.~{*+]{*'*$)!;*;*.~{*+]{*.~{*+]{*.~{*+]{*'*$)!;*;*.~{*+]{*.~{*+]{*.~{*+]{*'*$)!;*;*.~{*+]{*.~{*+]{*.~{*+]{*'*$)!;*;*.~{*+]{*.~{*+]{*.~{*+]{*'*$)!;*;*.~{*+]{*.~{*+]{*.~{*+]{*'*$)!;*;*.~{*+]{*.~{*+]{*.~{*+]{*'*$)!;*;*.~{*+]{*.~{*+]{*.~{*+]{*'*$)!;*;*.~{*+]{*.~{*+]{*.~{*+]{*'*$)!;*;*.~{*+]{*.~{*+]{*.~{*+]{*'*$)!;*;*.~{*+]{*.~{*+]{*.~{*+]{*'*$)!;*;*.~{*+]{*.~{*+]{*.~{*+]{*'*$)!;*;*.~{*+]{*.~{*+]{*.~{*+]{*'*$)!;*;*.~{*+]{*.~{*+]{*.~{*+]{*'*$)!;*;*.~{*+]{*.~{*+]{*.~{*+]{*'*$)!;*;*.~{*+]{*.~{*+]{*.~{*+]{*'*$)!;*;*.~{*+]{*.~{*+]{*.~{*+]{*'*$)!;",
".^~/+..+({*._:,@(]-.({*.{(*.<[/.(.^~/+..+({*._:,@(]-.({*.{(*.<[/.(.^~/+..+({*._:,@(]-.({*.{(*.<[/.(.^~/+..+({*._:,@(]-.({*.{(*.<[/.(.^~/+..+({*._:,@(]-.({*.{(*.<[/.(.^~/+..+({*._:,@(]-.({*.{(*.<[/.(.^~/+..+({*._:,@(]-.({*.{(*.<[/.(.^~/+..+({*._:,@(]-.({*.{(*.<[/.(.^~/+..+({*._:,@(]-.({*.{(*.<[/.(.^~/+..+({*._:,@(]-.({*.{(*.<[/.(.^~/+..+({*._:,@(]-.({*.{(*.<[/.(.^~/+..+({*._:,@(]-.({*.{(*.<[/.(.^~/+..+({*._:,@(]-.({*.{(*.<[/.(.^~/+..+({*._:,@(]-.({*.{(*.<[/.(.^~/+..+({*._:,@(]-.({*.{(*.<[/.(.^~/+..+({*._:,@(]-.({*.{(*.<[/.(.^~/+..+({*._:,@(]-.({*.{(*.<[/.(.^~/+..+({*._:,@(]-.({*.{(*.<[/.(.^~/+..+({*._:,@(]-.({*.{(*.<[/.(.^~/+.",
"/*>*/**;*}//*,*,-**}**/;*;=/*/*=*/*>*/**;*}//*,*,-**}**/;*;=/*/*=*/*>*/**;*}//*,*,-**}**/;*;=/*/*=*/*>*/**;*}//*,*,-**}**/;*;=/*/*=*/*>*/**;*}//*,*,-**}**/;*;=/*/*=*/*>*/**;*}//*,*,-**}**/;*;=/*/*=*/*>*/**;*}//*,*,-**}**/;*;=/*/*=*/*>*/**;*}//*,*,-**}**/;*;=/*/*=*/*>*/**;*}//*,*,-**}**/;*;=/*/*=*/*>*/**;*}//*,*,-**}**/;*;=/*/*=*/*>*/**;*}//*,*,-**}**/;*;=/*/*=*/*>*/**;*}//*,*,-**}**/;*;=/*/*=*/*>*/**;*}//*,*,-**}**/;*;=/*/*=*/*>*/**;*}//*,*,-**}**/;*;=/*/*=*/*>*/**;*}//*,*,-**}**/;*;=/*/*=*/*>*/**;*}//*,*,-**}**/;*;=/*/*=*/*>*/**;*}//*,*,-**}**/;*;=/*/*=*/*>*/**;*}//*,*,-**}**/;*;=/*/*=*/*>*/**;*}//*,*,-**}**/;*;=/*/*=*/*>*/*",
"*/**@+...#*;|-*.+.;$.1&*@.*..@;-**/**@+...#*;|-*.+.;$.1&*@.*..@;-**/**@+...#*;|-*.+.;$.1&*@.*..@;-**/**@+...#*;|-*.+.;$.1&*@.*..@;-**/**@+...#*;|-*.+.;$.1&*@.*..@;-**/**@+...#*;|-*.+.;$.1&*@.*..@;-**/**@+...#*;|-*.+.;$.1&*@.*..@;-**/**@+...#*;|-*.+.;$.1&*@.*..@;-**/**@+...#*;|-*.+.;$.1&*@.*..@;-**/**@+...#*;|-*.+.;$.1&*@.*..@;-**/**@+...#*;|-*.+.;$.1&*@.*..@;-**/**@+...#*;|-*.+.;$.1&*@.*..@;-**/**@+...#*;|-*.+.;$.1&*@.*..@;-**/**@+...#*;|-*.+.;$.1&*@.*..@;-**/**@+...#*;|-*.+.;$.1&*@.*..@;-**/**@+...#*;|-*.+.;$.1&*@.*..@;-**/**@+...#*;|-*.+.;$.1&*@.*..@;-**/**@+...#*;|-*.+.;$.1&*@.*..@;-**/**@+...#*;|-*.+.;$.1&*@.*..@;-**/**@+",
".+@!-('2[|.@3.{*];)<*:.4>@{=~/.+..+@!-('2[|.@3.{*];)<*:.4>@{=~/.+..+@!-('2[|.@3.{*];)<*:.4>@{=~/.+..+@!-('2[|.@3.{*];)<*:.4>@{=~/.+..+@!-('2[|.@3.{*];)<*:.4>@{=~/.+..+@!-('2[|.@3.{*];)<*:.4>@{=~/.+..+@!-('2[|.@3.{*];)<*:.4>@{=~/.+..+@!-('2[|.@3.{*];)<*:.4>@{=~/.+..+@!-('2[|.@3.{*];)<*:.4>@{=~/.+..+@!-('2[|.@3.{*];)<*:.4>@{=~/.+..+@!-('2[|.@3.{*];)<*:.4>@{=~/.+..+@!-('2[|.@3.{*];)<*:.4>@{=~/.+..+@!-('2[|.@3.{*];)<*:.4>@{=~/.+..+@!-('2[|.@3.{*];)<*:.4>@{=~/.+..+@!-('2[|.@3.{*];)<*:.4>@{=~/.+..+@!-('2[|.@3.{*];)<*:.4>@{=~/.+..+@!-('2[|.@3.{*];)<*:.4>@{=~/.+..+@!-('2[|.@3.{*];)<*:.4>@{=~/.+..+@!-('2[|.@3.{*];)<*:.4>@{=~/.+..+@!-(",
"**5@)/_<;]'|*-.{;{^6'7].]-.[*~(-***5@)/_<;]'|*-.{;{^6'7].]-.[*~(-***5@)/_<;]'|*-.{;{^6'7].]-.[*~(-***5@)/_<;]'|*-.{;{^6'7].]-.[*~(-***5@)/_<;]'|*-.{;{^6'7].]-.[*~(-***5@)/_<;]'|*-.{;{^6'7].]-.[*~(-***5@)/_<;]'|*-.{;{^6'7].]-.[*~(-***5@)/_<;]'|*-.{;{^6'7].]-.[*~(-***5@)/_<;]'|*-.{;{^6'7].]-.[*~(-***5@)/_<;]'|*-.{;{^6'7].]-.[*~(-***5@)/_<;]'|*-.{;{^6'7].]-.[*~(-***5@)/_<;]'|*-.{;{^6'7].]-.[*~(-***5@)/_<;]'|*-.{;{^6'7].]-.[*~(-***5@)/_<;]'|*-.{;{^6'7].]-.[*~(-***5@)/_<;]'|*-.{;{^6'7].]-.[*~(-***5@)/_<;]'|*-.{;{^6'7].]-.[*~(-***5@)/_<;]'|*-.{;{^6'7].]-.[*~(-***5@)/_<;]'|*-.{;{^6'7].]-.[*~(-***5@)/_<;]'|*-.{;{^6'7].]-.[*~(-***5@)/",
"..*8.*.@-4.*.^*+<*/*{*/*.}*>[9*....*8.*.@-4.*.^*+<*/*{*/*.}*>[9*....*8.*.@-4.*.^*+<*/*{*/*.}*>[9*....*8.*.@-4.*.^*+<*/*{*/*.}*>[9*....*8.*.@-4.*.^*+<*/*{*/*.}*>[9*....*8.*.@-4.*.^*+<*/*{*/*.}*>[9*....*8.*.@-4.*.^*+<*/*{*/*.}*>[9*....*8.*.@-4.*.^*+<*/*{*/*.}*>[9*....*8.*.@-4.*.^*+<*/*{*/*.}*>[9*....*8.*.@-4.*.^*+<*/*{*/*.}*>[9*....*8.*.@-4.*.^*+<*/*{*/*.}*>[9*....*8.*.@-4.*.^*+<*/*{*/*.}*>[9*....*8.*.@-4.*.^*+<*/*{*/*.}*>[9*....*8.*.@-4.*.^*+<*/*{*/*.}*>[9*....*8.*.@-4.*.^*+<*/*{*/*.}*>[9*....*8.*.@-4.*.^*+<*/*{*/*.}*>[9*....*8.*.@-4.*.^*+<*/*{*/*.}*>[9*....*8.*.@-4.*.^*+<*/*{*/*.}*>[9*....*8.*.@-4.*.^*+<*/*{*/*.}*>[9*....*8.*",
"].<*;*.@**;](.^,.$.4+0.*.+.'4*'^.].<*;*.@**;](.^,.$.4+0.*.+.'4*'^.].<*;*.@**;](.^,.$.4+0.*.+.'4*'^.].<*;*.@**;](.^,.$.4+0.*.+.'4*'^.].<*;*.@**;](.^,.$.4+0.*.+.'4*'^.].<*;*.@**;](.^,.$.4+0.*.+.'4*'^.].<*;*.@**;](.^,.$.4+0.*.+.'4*'^.].<*;*.@**;](.^,.$.4+0.*.+.'4*'^.].<*;*.@**;](.^,.$.4+0.*.+.'4*'^.].<*;*.@**;](.^,.$.4+0.*.+.'4*'^.].<*;*.@**;](.^,.$.4+0.*.+.'4*'^.].<*;*.@**;](.^,.$.4+0.*.+.'4*'^.].<*;*.@**;](.^,.$.4+0.*.+.'4*'^.].<*;*.@**;](.^,.$.4+0.*.+.'4*'^.].<*;*.@**;](.^,.$.4+0.*.+.'4*'^.].<*;*.@**;](.^,.$.4+0.*.+.'4*'^.].<*;*.@**;](.^,.$.4+0.*.+.'4*'^.].<*;*.@**;](.^,.$.4+0.*.+.'4*'^.].<*;*.@**;](.^,.$.4+0.*.+.'4*'^.].<*;*",
"!^..|:...*~8a*,]*<~'.*.;'<~'*7',~!^..|:...*~8a*,]*<~'.*.;'<~'*7',~!^..|:...*~8a*,]*<~'.*.;'<~'*7',~!^..|:...*~8a*,]*<~'.*.;'<~'*7',~!^..|:...*~8a*,]*<~'.*.;'<~'*7',~!^..|:...*~8a*,]*<~'.*.;'<~'*7',~!^..|:...*~8a*,]*<~'.*.;'<~'*7',~!^..|:...*~8a*,]*<~'.*.;'<~'*7',~!^..|:...*~8a*,]*<~'.*.;'<~'*7',~!^..|:...*~8a*,]*<~'.*.;'<~'*7',~!^..|:...*~8a*,]*<~'.*.;'<~'*7',~!^..|:...*~8a*,]*<~'.*.;'<~'*7',~!^..|:...*~8a*,]*<~'.*.;'<~'*7',~!^..|:...*~8a*,]*<~'.*.;'<~'*7',~!^..|:...*~8a*,]*<~'.*.;'<~'*7',~!^..|:...*~8a*,]*<~'.*.;'<~'*7',~!^..|:...*~8a*,]*<~'.*.;'<~'*7',~!^..|:...*~8a*,]*<~'.*.;'<~'*7',~!^..|:...*~8a*,]*<~'.*.;'<~'*7',~!^..|:",
"bcc*^d{~.d**e.**;=}=.',){***-**<;bcc*^d{~.d**e.**;=}=.',){***-**<;bcc*^d{~.d**e.**;=}=.',){***-**<;bcc*^d{~.d**e.**;=}=.',){***-**<;bcc*^d{~.d**e.**;=}=.',){***-**<;bcc*^d{~.d**e.**;=}=.',){***-**<;bcc*^d{~.d**e.**;=}=.',){***-**<;bcc*^d{~.d**e.**;=}=.',){***-**<;bcc*^d{~.d**e.**;=}=.',){***-**<;bcc*^d{~.d**e.**;=}=.',){***-**<;bcc*^d{~.d**e.**;=}=.',){***-**<;bcc*^d{~.d**e.**;=}=.',){***-**<;bcc*^d{~.d**e.**;=}=.',){***-**<;bcc*^d{~.d**e.**;=}=.',){***-**<;bcc*^d{~.d**e.**;=}=.',){***-**<;bcc*^d{~.d**e.**;=}=.',){***-**<;bcc*^d{~.d**e.**;=}=.',){***-**<;bcc*^d{~.d**e.**;=}=.',){***-**<;bcc*^d{~.d**e.**;=}=.',){***-**<;bcc*^d",
"|fghi[j-2.$.k-...+.]=+lh=f....7*.|fghi[j-2.$.k-...+.]=+lh=f....7*.|fghi[j-2.$.k-...+.]=+lh=f....7*.|fghi[j-2.$.k-...+.]=+lh=f....7*.|fghi[j-2.$.k-...+.]=+lh=f....7*.|fghi[j-2.$.k-...+.]=+lh=f....7*.|fghi[j-2.$.k-...+.]=+lh=f....7*.|fghi[j-2.$.k-...+.]=+lh=f....7*.|fghi[j-2.$.k-...+.]=+lh=f....7*.|fghi[j-2.$.k-...+.]=+lh=f....7*.|fghi[j-2.$.k-...+.]=+lh=f....7*.|fghi[j-2.$.k-...+.]=+lh=f....7*.|fghi[j-2.$.k-...+.]=+lh=f....7*.|fghi[j-2.$.k-...+.]=+lh=f....7*.|fghi[j-2.$.k-...+.]=+lh=f....7*.|fghi[j-2.$.k-...+.]=+lh=f....7*.|fghi[j-2.$.k-...+.]=+lh=f....7*.|fghi[j-2.$.k-...+.]=+lh=f....7*.|fghi[j-2.$.k-...+.]=+lh=f....7*.|fghi[",
"*=*''/'~*im>-n*,**-;**#*/,**-*;==*=*''/'~*im>-n*,**-;**#*/,**-*;==*=*''/'~*im>-n*,**-;**#*/,**-*;==*=*''/'~*im>-n*,**-;**#*/,**-*;==*=*''/'~*im>-n*,**-;**#*/,**-*;==*=*''/'~*im>-n*,**-;**#*/,**-*;==*=*''/'~*im>-n*,**-;**#*/,**-*;==*=*''/'~*im>-n*,**-;**#*/,**-*;==*=*''/'~*im>-n*,**-;**#*/,**-*;==*=*''/'~*im>-n*,**-;**#*/,**-*;==*=*''/'~*im>-n*,**-;**#*/,**-*;==*=*''/'~*im>-n*,**-;**#*/,**-*;==*=*''/'~*im>-n*,**-;**#*/,**-*;==*=*''/'~*im>-n*,**-;**#*/,**-*;==*=*''/'~*im>-n*,**-;**#*/,**-*;==*=*''/'~*im>-n*,**-;**#*/,**-*;==*=*''/'~*im>-n*,**-;**#*/,**-*;==*=*''/'~*im>-n*,**-;**#*/,**-*;==*=*''/'~*im>-n*,**-;**#*/,**-*;==*=*''/",
" .|{.*.o-[+*@.$...+...-f$.....+..$.|{.*.o-[+*@.$...+...-f$.....+..$.|{.*.o-[+*@.$...+...-f$.....+..$.|{.*.o-[+*@.$...+...-f$.....+..$.|{.*.o-[+*@.$...+...-f$.....+..$.|{.*.o-[+*@.$...+...-f$.....+..$.|{.*.o-[+*@.$...+...-f$.....+..$.|{.*.o-[+*@.$...+...-f$.....+..$.|{.*.o-[+*@.$...+...-f$.....+..$.|{.*.o-[+*@.$...+...-f$.....+..$.|{.*.o-[+*@.$...+...-f$.....+..$.|{.*.o-[+*@.$...+...-f$.....+..$.|{.*.o-[+*@.$...+...-f$.....+..$.|{.*.o-[+*@.$...+...-f$.....+..$.|{.*.o-[+*@.$...+...-f$.....+..$.|{.*.o-[+*@.$...+...-f$.....+..$.|{.*.o-[+*@.$...+...-f$.....+..$.|{.*.o-[+*@.$...+...-f$.....+..$.|{.*.o-[+*@.$...+...-f$.....+..$.|{.*",
".8.=.d**{p*..#...&.$+.&...+..+....8.=.d**{p*..#...&.$+.&...+..+....8.=.d**{p*..#...&.$+.&...+..+....8.=.d**{p*..#...&.$+.&...+..+....8.=.d**{p*..#...&.$+.&...+..+....8.=.d**{p*..#...&.$+.&...+..+....8.=.d**{p*..#...&.$+.&...+..+....8.=.d**{p*..#...&.$+.&...+..+....8.=.d**{p*..#...&.$+.&...+..+....8.=.d**{p*..#...&.$+.&...+..+....8.=.d**{p*..#...&.$+.&...+..+....8.=.d**{p*..#...&.$+.&...+..+....8.=.d**{p*..#...&.$+.&...+..+....8.=.d**{p*..#...&.$+.&...+..+....8.=.d**{p*..#...&.$+.&...+..+....8.=.d**{p*..#...&.$+.&...+..+....8.=.d**{p*..#...&.$+.&...+..+....8.=.d**{p*..#...&.$+.&...+..+....8.=.d**{p*..#...&.$+.&...+..+....8.=.d",
".+..*.<]!*....3......-**.+.+..3...+..*.<]!*....3......-**.+.+..3...+..*.<]!*....3......-**.+.+..3...+..*.<]!*....3......-**.+.+..3...+..*.<]!*....3......-**.+.+..3...+..*.<]!*....3......-**.+.+..3...+..*.<]!*....3......-**.+.+..3...+..*.<]!*....3......-**.+.+..3...+..*.<]!*....3......-**.+.+..3...+..*.<]!*....3......-**.+.+..3...+..*.<]!*....3......-**.+.+..3...+..*.<]!*....3......-**.+.+..3...+..*.<]!*....3......-**.+.+..3...+..*.<]!*....3......-**.+.+..3...+..*.<]!*....3......-**.+.+..3...+..*.<]!*....3......-**.+.+..3...+..*.<]!*....3......-**.+.+..3...+..*.<]!*....3......-**.+.+..3...+..*.<]!*....3......-**.+.+..3...+..*.",
".....*{{*.oo.......+.$}+..+...........*{{*.oo.......+.$}+..+...........*{{*.oo.......+.$}+..+...........*{{*.oo.......+.$}+..+...........*{{*.oo.......+.$}+..+...........*{{*.oo.......+.$}+..+...........*{{*.oo.......+.$}+..+...........*{{*.oo.......+.$}+..+...........*{{*.oo.......+.$}+..+...........*{{*.oo.......+.$}+..+...........*{{*.oo.......+.$}+..+...........*{{*.oo.......+.$}+..+...........*{{*.oo.......+.$}+..+...........*{{*.oo.......+.$}+..+...........*{{*.oo.......+.$}+..+...........*{{*.oo.......+.$}+..+...........*{{*.oo.......+.$}+..+...........*{{*.oo.......+.$}+..+...........*{{*.oo.......+.$}+..+...........*",
"+..++.*-..q..+..+.$..+.....+..@..+..++.*-..q..+..+.$..+.....+..@..+..++.*-..q..+..+.$..+.....+..@..+..++.*-..q..+..+.$..+.....+..@..+..++.*-..q..+..+.$..+.....+..@..+..++.*-..q..+..+.$..+.....+..@..+..++.*-..q..+..+.$..+.....+..@..+..++.*-..q..+..+.$..+.....+..@..+..++.*-..q..+..+.$..+.....+..@..+..++.*-..q..+..+.$..+.....+..@..+..++.*-..q..+..+.$..+.....+..@..+..++.*-..q..+..+.$..+.....+..@..+..++.*-..q..+..+.$..+.....+..@..+..++.*-..q..+..+.$..+.....+..@..+..++.*-..q..+..+.$..+.....+..@..+..++.*-..q..+..+.$..+.....+..@..+..++.*-..q..+..+.$..+.....+..@..+..++.*-..q..+..+.$..+.....+..@..+..++.*-..q..+..+.$..+.....+..@..+..++.",
".+....1*.........$.+..r+..........+....1*.........$.+..r+..........+....1*.........$.+..r+..........+....1*.........$.+..r+..........+....1*.........$.+..r+..........+....1*.........$.+..r+..........+....1*.........$.+..r+..........+....1*.........$.+..r+..........+....1*.........$.+..r+..........+....1*.........$.+..r+..........+....1*.........$.+..r+..........+....1*.........$.+..r+..........+....1*.........$.+..r+..........+....1*.........$.+..r+..........+....1*.........$.+..r+..........+....1*.........$.+..r+..........+....1*.........$.+..r+..........+....1*.........$.+..r+..........+....1*.........$.+..r+..........+....",
"..++@.7..........+....[............++@.7..........+....[............++@.7..........+....[............++@.7..........+....[............++@.7..........+....[............++@.7..........+....[............++@.7..........+....[............++@.7..........+....[............++@.7..........+....[............++@.7..........+....[............++@.7..........+....[............++@.7..........+....[............++@.7..........+....[............++@.7..........+....[............++@.7..........+....[............++@.7..........+....[............++@.7..........+....[............++@.7..........+....[............++@.7..........+....[............++@.",
"+................................+................................+................................+................................+................................+................................+................................+................................+................................+................................+................................+................................+................................+................................+................................+................................+................................+................................+................................+.....",
"..o..+.%...........................o..+.%...........................o..+.%...........................o..+.%...........................o..+.%...........................o..+.%...........................o..+.%...........................o..+.%...........................o..+.%...........................o..+.%...........................o..+.%...........................o..+.%...........................o..+.%...........................o..+.%...........................o..+.%...........................o..+.%...........................o..+.%...........................o..+.%...........................o..+.%...........................o..+",
"....+.................@..............+.................@..............+.................@..............+.................@..............+.................@..............+.................@..............+.................@..............+.................@..............+.................@..............+.................@..............+.................@..............+.................@..............+.................@..............+.................@..............+.................@..............+.................@..............+.................@..............+.................@..............+.................@..............+.",
".+..$.$.........+.+.@.............+..$.$.........+.+.@.............+..$.$.........+.+.@.............+..$.$.........+.+.@.............+..$.$.........+.+.@.............+..$.$.........+.+.@.............+..$.$.........+.+.@.............+..$.$.........+.+.@.............+..$.$.........+.+.@.............+..$.$.........+.+.@.............+..$.$.........+.+.@.............+..$.$.........+.+.@.............+..$.$.........+.+.@.............+..$.$.........+.+.@.............+..$.$.........+.+.@.............+..$.$.........+.+.@.............+..$.$.........+.+.@.............+..$.$.........+.+.@.............+..$.$.........+.+.@.............+..$.",
"....................@..+.............................@..+.............................@..+.............................@..+.............................@..+.............................@..+.............................@..+.............................@..+.............................@..+.............................@..+.............................@..+.............................@..+.............................@..+.............................@..+.............................@..+.............................@..+.............................@..+.............................@..+.............................@..+...............",
".....+...........+.+..#...............+...........+.+..#...............+...........+.+..#...............+...........+.+..#...............+...........+.+..#...............+...........+.+..#...............+...........+.+..#...............+...........+.+..#...............+...........+.+..#...............+...........+.+..#...............+...........+.+..#...............+...........+.+..#...............+...........+.+..#...............+...........+.+..#...............+...........+.+..#...............+...........+.+..#...............+...........+.+..#...............+...........+.+..#...............+...........+.+..#...............+",
"........................................................................................................................................................................................................................................................................................................................................................................................................................................................................................................................................................................................................................................................."};
